%YAML 1.1
%TAG !u! tag:unity3d.com,2011:
--- !u!1 &1571661396259684078
GameObject:
  m_ObjectHideFlags: 0
  m_CorrespondingSourceObject: {fileID: 0}
  m_PrefabInstance: {fileID: 0}
  m_PrefabAsset: {fileID: 0}
  serializedVersion: 6
  m_Component:
  - component: {fileID: 5281397964337587529}
  - component: {fileID: 376810728704166619}
  m_Layer: 0
  m_Name: Terreno
  m_TagString: Untagged
  m_Icon: {fileID: 0}
  m_NavMeshLayer: 0
  m_StaticEditorFlags: 0
  m_IsActive: 1
--- !u!4 &5281397964337587529
Transform:
  m_ObjectHideFlags: 0
  m_CorrespondingSourceObject: {fileID: 0}
  m_PrefabInstance: {fileID: 0}
  m_PrefabAsset: {fileID: 0}
  m_GameObject: {fileID: 1571661396259684078}
  m_LocalRotation: {x: 0, y: 0, z: 0, w: 1}
  m_LocalPosition: {x: 0, y: 0, z: 0}
  m_LocalScale: {x: 1, y: 1, z: 1}
  m_ConstrainProportionsScale: 0
  m_Children:
  - {fileID: 5805807360046982867}
  m_Father: {fileID: 0}
  m_RootOrder: 0
  m_LocalEulerAnglesHint: {x: 0, y: 0, z: 0}
--- !u!156049354 &376810728704166619
Grid:
  m_ObjectHideFlags: 0
  m_CorrespondingSourceObject: {fileID: 0}
  m_PrefabInstance: {fileID: 0}
  m_PrefabAsset: {fileID: 0}
  m_GameObject: {fileID: 1571661396259684078}
  m_Enabled: 1
  m_CellSize: {x: 1, y: 1, z: 0}
  m_CellGap: {x: 0, y: 0, z: 0}
  m_CellLayout: 0
  m_CellSwizzle: 0
--- !u!1 &7850942525507550235
GameObject:
  m_ObjectHideFlags: 0
  m_CorrespondingSourceObject: {fileID: 0}
  m_PrefabInstance: {fileID: 0}
  m_PrefabAsset: {fileID: 0}
  serializedVersion: 6
  m_Component:
  - component: {fileID: 5805807360046982867}
  - component: {fileID: 6700823406673753730}
  - component: {fileID: 846987582717010285}
  m_Layer: 0
  m_Name: Layer1
  m_TagString: Untagged
  m_Icon: {fileID: 0}
  m_NavMeshLayer: 0
  m_StaticEditorFlags: 0
  m_IsActive: 1
--- !u!4 &5805807360046982867
Transform:
  m_ObjectHideFlags: 0
  m_CorrespondingSourceObject: {fileID: 0}
  m_PrefabInstance: {fileID: 0}
  m_PrefabAsset: {fileID: 0}
  m_GameObject: {fileID: 7850942525507550235}
  m_LocalRotation: {x: -0, y: -0, z: -0, w: 1}
  m_LocalPosition: {x: 0, y: 0, z: 0}
  m_LocalScale: {x: 1, y: 1, z: 1}
  m_ConstrainProportionsScale: 0
  m_Children: []
  m_Father: {fileID: 5281397964337587529}
  m_RootOrder: 0
  m_LocalEulerAnglesHint: {x: 0, y: 0, z: 0}
--- !u!1839735485 &6700823406673753730
Tilemap:
  m_ObjectHideFlags: 0
  m_CorrespondingSourceObject: {fileID: 0}
  m_PrefabInstance: {fileID: 0}
  m_PrefabAsset: {fileID: 0}
  m_GameObject: {fileID: 7850942525507550235}
  m_Enabled: 1
  m_Tiles:
  - first: {x: -2, y: -9, z: 0}
    second:
      serializedVersion: 2
      m_TileIndex: 132
      m_TileSpriteIndex: 132
      m_TileMatrixIndex: 0
      m_TileColorIndex: 0
      m_TileObjectToInstantiateIndex: 65535
      dummyAlignment: 0
      m_AllTileFlags: 1073741825
  - first: {x: -1, y: -9, z: 0}
    second:
      serializedVersion: 2
      m_TileIndex: 133
      m_TileSpriteIndex: 133
      m_TileMatrixIndex: 0
      m_TileColorIndex: 0
      m_TileObjectToInstantiateIndex: 65535
      dummyAlignment: 0
      m_AllTileFlags: 1073741825
  - first: {x: 0, y: -9, z: 0}
    second:
      serializedVersion: 2
      m_TileIndex: 134
      m_TileSpriteIndex: 134
      m_TileMatrixIndex: 0
      m_TileColorIndex: 0
      m_TileObjectToInstantiateIndex: 65535
      dummyAlignment: 0
      m_AllTileFlags: 1073741825
  - first: {x: 4, y: -9, z: 0}
    second:
      serializedVersion: 2
      m_TileIndex: 135
      m_TileSpriteIndex: 135
      m_TileMatrixIndex: 0
      m_TileColorIndex: 0
      m_TileObjectToInstantiateIndex: 65535
      dummyAlignment: 0
      m_AllTileFlags: 1073741825
  - first: {x: 5, y: -9, z: 0}
    second:
      serializedVersion: 2
      m_TileIndex: 136
      m_TileSpriteIndex: 136
      m_TileMatrixIndex: 0
      m_TileColorIndex: 0
      m_TileObjectToInstantiateIndex: 65535
      dummyAlignment: 0
      m_AllTileFlags: 1073741825
  - first: {x: 6, y: -9, z: 0}
    second:
      serializedVersion: 2
      m_TileIndex: 137
      m_TileSpriteIndex: 137
      m_TileMatrixIndex: 0
      m_TileColorIndex: 0
      m_TileObjectToInstantiateIndex: 65535
      dummyAlignment: 0
      m_AllTileFlags: 1073741825
  - first: {x: 11, y: -9, z: 0}
    second:
      serializedVersion: 2
      m_TileIndex: 138
      m_TileSpriteIndex: 138
      m_TileMatrixIndex: 0
      m_TileColorIndex: 0
      m_TileObjectToInstantiateIndex: 65535
      dummyAlignment: 0
      m_AllTileFlags: 1073741825
  - first: {x: 12, y: -9, z: 0}
    second:
      serializedVersion: 2
      m_TileIndex: 139
      m_TileSpriteIndex: 139
      m_TileMatrixIndex: 0
      m_TileColorIndex: 0
      m_TileObjectToInstantiateIndex: 65535
      dummyAlignment: 0
      m_AllTileFlags: 1073741825
  - first: {x: 13, y: -9, z: 0}
    second:
      serializedVersion: 2
      m_TileIndex: 140
      m_TileSpriteIndex: 140
      m_TileMatrixIndex: 0
      m_TileColorIndex: 0
      m_TileObjectToInstantiateIndex: 65535
      dummyAlignment: 0
      m_AllTileFlags: 1073741825
  - first: {x: 16, y: -9, z: 0}
    second:
      serializedVersion: 2
      m_TileIndex: 141
      m_TileSpriteIndex: 141
      m_TileMatrixIndex: 0
      m_TileColorIndex: 0
      m_TileObjectToInstantiateIndex: 65535
      dummyAlignment: 0
      m_AllTileFlags: 1073741825
  - first: {x: 17, y: -9, z: 0}
    second:
      serializedVersion: 2
      m_TileIndex: 142
      m_TileSpriteIndex: 142
      m_TileMatrixIndex: 0
      m_TileColorIndex: 0
      m_TileObjectToInstantiateIndex: 65535
      dummyAlignment: 0
      m_AllTileFlags: 1073741825
  - first: {x: 18, y: -9, z: 0}
    second:
      serializedVersion: 2
      m_TileIndex: 143
      m_TileSpriteIndex: 143
      m_TileMatrixIndex: 0
      m_TileColorIndex: 0
      m_TileObjectToInstantiateIndex: 65535
      dummyAlignment: 0
      m_AllTileFlags: 1073741825
  - first: {x: -2, y: -8, z: 0}
    second:
      serializedVersion: 2
      m_TileIndex: 114
      m_TileSpriteIndex: 114
      m_TileMatrixIndex: 0
      m_TileColorIndex: 0
      m_TileObjectToInstantiateIndex: 65535
      dummyAlignment: 0
      m_AllTileFlags: 1073741825
  - first: {x: -1, y: -8, z: 0}
    second:
      serializedVersion: 2
      m_TileIndex: 115
      m_TileSpriteIndex: 115
      m_TileMatrixIndex: 0
      m_TileColorIndex: 0
      m_TileObjectToInstantiateIndex: 65535
      dummyAlignment: 0
      m_AllTileFlags: 1073741825
  - first: {x: 0, y: -8, z: 0}
    second:
      serializedVersion: 2
      m_TileIndex: 116
      m_TileSpriteIndex: 116
      m_TileMatrixIndex: 0
      m_TileColorIndex: 0
      m_TileObjectToInstantiateIndex: 65535
      dummyAlignment: 0
      m_AllTileFlags: 1073741825
  - first: {x: 1, y: -8, z: 0}
    second:
      serializedVersion: 2
      m_TileIndex: 117
      m_TileSpriteIndex: 117
      m_TileMatrixIndex: 0
      m_TileColorIndex: 0
      m_TileObjectToInstantiateIndex: 65535
      dummyAlignment: 0
      m_AllTileFlags: 1073741825
  - first: {x: 2, y: -8, z: 0}
    second:
      serializedVersion: 2
      m_TileIndex: 118
      m_TileSpriteIndex: 118
      m_TileMatrixIndex: 0
      m_TileColorIndex: 0
      m_TileObjectToInstantiateIndex: 65535
      dummyAlignment: 0
      m_AllTileFlags: 1073741825
  - first: {x: 4, y: -8, z: 0}
    second:
      serializedVersion: 2
      m_TileIndex: 119
      m_TileSpriteIndex: 119
      m_TileMatrixIndex: 0
      m_TileColorIndex: 0
      m_TileObjectToInstantiateIndex: 65535
      dummyAlignment: 0
      m_AllTileFlags: 1073741825
  - first: {x: 5, y: -8, z: 0}
    second:
      serializedVersion: 2
      m_TileIndex: 120
      m_TileSpriteIndex: 120
      m_TileMatrixIndex: 0
      m_TileColorIndex: 0
      m_TileObjectToInstantiateIndex: 65535
      dummyAlignment: 0
      m_AllTileFlags: 1073741825
  - first: {x: 6, y: -8, z: 0}
    second:
      serializedVersion: 2
      m_TileIndex: 121
      m_TileSpriteIndex: 121
      m_TileMatrixIndex: 0
      m_TileColorIndex: 0
      m_TileObjectToInstantiateIndex: 65535
      dummyAlignment: 0
      m_AllTileFlags: 1073741825
  - first: {x: 7, y: -8, z: 0}
    second:
      serializedVersion: 2
      m_TileIndex: 122
      m_TileSpriteIndex: 122
      m_TileMatrixIndex: 0
      m_TileColorIndex: 0
      m_TileObjectToInstantiateIndex: 65535
      dummyAlignment: 0
      m_AllTileFlags: 1073741825
  - first: {x: 8, y: -8, z: 0}
    second:
      serializedVersion: 2
      m_TileIndex: 123
      m_TileSpriteIndex: 123
      m_TileMatrixIndex: 0
      m_TileColorIndex: 0
      m_TileObjectToInstantiateIndex: 65535
      dummyAlignment: 0
      m_AllTileFlags: 1073741825
  - first: {x: 10, y: -8, z: 0}
    second:
      serializedVersion: 2
      m_TileIndex: 124
      m_TileSpriteIndex: 124
      m_TileMatrixIndex: 0
      m_TileColorIndex: 0
      m_TileObjectToInstantiateIndex: 65535
      dummyAlignment: 0
      m_AllTileFlags: 1073741825
  - first: {x: 11, y: -8, z: 0}
    second:
      serializedVersion: 2
      m_TileIndex: 125
      m_TileSpriteIndex: 125
      m_TileMatrixIndex: 0
      m_TileColorIndex: 0
      m_TileObjectToInstantiateIndex: 65535
      dummyAlignment: 0
      m_AllTileFlags: 1073741825
  - first: {x: 12, y: -8, z: 0}
    second:
      serializedVersion: 2
      m_TileIndex: 126
      m_TileSpriteIndex: 126
      m_TileMatrixIndex: 0
      m_TileColorIndex: 0
      m_TileObjectToInstantiateIndex: 65535
      dummyAlignment: 0
      m_AllTileFlags: 1073741825
  - first: {x: 13, y: -8, z: 0}
    second:
      serializedVersion: 2
      m_TileIndex: 127
      m_TileSpriteIndex: 127
      m_TileMatrixIndex: 0
      m_TileColorIndex: 0
      m_TileObjectToInstantiateIndex: 65535
      dummyAlignment: 0
      m_AllTileFlags: 1073741825
  - first: {x: 15, y: -8, z: 0}
    second:
      serializedVersion: 2
      m_TileIndex: 128
      m_TileSpriteIndex: 128
      m_TileMatrixIndex: 0
      m_TileColorIndex: 0
      m_TileObjectToInstantiateIndex: 65535
      dummyAlignment: 0
      m_AllTileFlags: 1073741825
  - first: {x: 16, y: -8, z: 0}
    second:
      serializedVersion: 2
      m_TileIndex: 129
      m_TileSpriteIndex: 129
      m_TileMatrixIndex: 0
      m_TileColorIndex: 0
      m_TileObjectToInstantiateIndex: 65535
      dummyAlignment: 0
      m_AllTileFlags: 1073741825
  - first: {x: 17, y: -8, z: 0}
    second:
      serializedVersion: 2
      m_TileIndex: 130
      m_TileSpriteIndex: 130
      m_TileMatrixIndex: 0
      m_TileColorIndex: 0
      m_TileObjectToInstantiateIndex: 65535
      dummyAlignment: 0
      m_AllTileFlags: 1073741825
  - first: {x: 18, y: -8, z: 0}
    second:
      serializedVersion: 2
      m_TileIndex: 131
      m_TileSpriteIndex: 131
      m_TileMatrixIndex: 0
      m_TileColorIndex: 0
      m_TileObjectToInstantiateIndex: 65535
      dummyAlignment: 0
      m_AllTileFlags: 1073741825
  - first: {x: -2, y: -7, z: 0}
    second:
      serializedVersion: 2
      m_TileIndex: 96
      m_TileSpriteIndex: 96
      m_TileMatrixIndex: 0
      m_TileColorIndex: 0
      m_TileObjectToInstantiateIndex: 65535
      dummyAlignment: 0
      m_AllTileFlags: 1073741825
  - first: {x: -1, y: -7, z: 0}
    second:
      serializedVersion: 2
      m_TileIndex: 97
      m_TileSpriteIndex: 97
      m_TileMatrixIndex: 0
      m_TileColorIndex: 0
      m_TileObjectToInstantiateIndex: 65535
      dummyAlignment: 0
      m_AllTileFlags: 1073741825
  - first: {x: 0, y: -7, z: 0}
    second:
      serializedVersion: 2
      m_TileIndex: 98
      m_TileSpriteIndex: 98
      m_TileMatrixIndex: 0
      m_TileColorIndex: 0
      m_TileObjectToInstantiateIndex: 65535
      dummyAlignment: 0
      m_AllTileFlags: 1073741825
  - first: {x: 1, y: -7, z: 0}
    second:
      serializedVersion: 2
      m_TileIndex: 99
      m_TileSpriteIndex: 99
      m_TileMatrixIndex: 0
      m_TileColorIndex: 0
      m_TileObjectToInstantiateIndex: 65535
      dummyAlignment: 0
      m_AllTileFlags: 1073741825
  - first: {x: 2, y: -7, z: 0}
    second:
      serializedVersion: 2
      m_TileIndex: 100
      m_TileSpriteIndex: 100
      m_TileMatrixIndex: 0
      m_TileColorIndex: 0
      m_TileObjectToInstantiateIndex: 65535
      dummyAlignment: 0
      m_AllTileFlags: 1073741825
  - first: {x: 4, y: -7, z: 0}
    second:
      serializedVersion: 2
      m_TileIndex: 101
      m_TileSpriteIndex: 101
      m_TileMatrixIndex: 0
      m_TileColorIndex: 0
      m_TileObjectToInstantiateIndex: 65535
      dummyAlignment: 0
      m_AllTileFlags: 1073741825
  - first: {x: 5, y: -7, z: 0}
    second:
      serializedVersion: 2
      m_TileIndex: 102
      m_TileSpriteIndex: 102
      m_TileMatrixIndex: 0
      m_TileColorIndex: 0
      m_TileObjectToInstantiateIndex: 65535
      dummyAlignment: 0
      m_AllTileFlags: 1073741825
  - first: {x: 6, y: -7, z: 0}
    second:
      serializedVersion: 2
      m_TileIndex: 103
      m_TileSpriteIndex: 103
      m_TileMatrixIndex: 0
      m_TileColorIndex: 0
      m_TileObjectToInstantiateIndex: 65535
      dummyAlignment: 0
      m_AllTileFlags: 1073741825
  - first: {x: 7, y: -7, z: 0}
    second:
      serializedVersion: 2
      m_TileIndex: 104
      m_TileSpriteIndex: 104
      m_TileMatrixIndex: 0
      m_TileColorIndex: 0
      m_TileObjectToInstantiateIndex: 65535
      dummyAlignment: 0
      m_AllTileFlags: 1073741825
  - first: {x: 8, y: -7, z: 0}
    second:
      serializedVersion: 2
      m_TileIndex: 105
      m_TileSpriteIndex: 105
      m_TileMatrixIndex: 0
      m_TileColorIndex: 0
      m_TileObjectToInstantiateIndex: 65535
      dummyAlignment: 0
      m_AllTileFlags: 1073741825
  - first: {x: 10, y: -7, z: 0}
    second:
      serializedVersion: 2
      m_TileIndex: 106
      m_TileSpriteIndex: 106
      m_TileMatrixIndex: 0
      m_TileColorIndex: 0
      m_TileObjectToInstantiateIndex: 65535
      dummyAlignment: 0
      m_AllTileFlags: 1073741825
  - first: {x: 11, y: -7, z: 0}
    second:
      serializedVersion: 2
      m_TileIndex: 107
      m_TileSpriteIndex: 107
      m_TileMatrixIndex: 0
      m_TileColorIndex: 0
      m_TileObjectToInstantiateIndex: 65535
      dummyAlignment: 0
      m_AllTileFlags: 1073741825
  - first: {x: 12, y: -7, z: 0}
    second:
      serializedVersion: 2
      m_TileIndex: 108
      m_TileSpriteIndex: 108
      m_TileMatrixIndex: 0
      m_TileColorIndex: 0
      m_TileObjectToInstantiateIndex: 65535
      dummyAlignment: 0
      m_AllTileFlags: 1073741825
  - first: {x: 13, y: -7, z: 0}
    second:
      serializedVersion: 2
      m_TileIndex: 109
      m_TileSpriteIndex: 109
      m_TileMatrixIndex: 0
      m_TileColorIndex: 0
      m_TileObjectToInstantiateIndex: 65535
      dummyAlignment: 0
      m_AllTileFlags: 1073741825
  - first: {x: 15, y: -7, z: 0}
    second:
      serializedVersion: 2
      m_TileIndex: 110
      m_TileSpriteIndex: 110
      m_TileMatrixIndex: 0
      m_TileColorIndex: 0
      m_TileObjectToInstantiateIndex: 65535
      dummyAlignment: 0
      m_AllTileFlags: 1073741825
  - first: {x: 16, y: -7, z: 0}
    second:
      serializedVersion: 2
      m_TileIndex: 111
      m_TileSpriteIndex: 111
      m_TileMatrixIndex: 0
      m_TileColorIndex: 0
      m_TileObjectToInstantiateIndex: 65535
      dummyAlignment: 0
      m_AllTileFlags: 1073741825
  - first: {x: 17, y: -7, z: 0}
    second:
      serializedVersion: 2
      m_TileIndex: 112
      m_TileSpriteIndex: 112
      m_TileMatrixIndex: 0
      m_TileColorIndex: 0
      m_TileObjectToInstantiateIndex: 65535
      dummyAlignment: 0
      m_AllTileFlags: 1073741825
  - first: {x: 18, y: -7, z: 0}
    second:
      serializedVersion: 2
      m_TileIndex: 113
      m_TileSpriteIndex: 113
      m_TileMatrixIndex: 0
      m_TileColorIndex: 0
      m_TileObjectToInstantiateIndex: 65535
      dummyAlignment: 0
      m_AllTileFlags: 1073741825
  - first: {x: -2, y: -5, z: 0}
    second:
      serializedVersion: 2
      m_TileIndex: 84
      m_TileSpriteIndex: 84
      m_TileMatrixIndex: 0
      m_TileColorIndex: 0
      m_TileObjectToInstantiateIndex: 65535
      dummyAlignment: 0
      m_AllTileFlags: 1073741825
  - first: {x: -1, y: -5, z: 0}
    second:
      serializedVersion: 2
      m_TileIndex: 85
      m_TileSpriteIndex: 85
      m_TileMatrixIndex: 0
      m_TileColorIndex: 0
      m_TileObjectToInstantiateIndex: 65535
      dummyAlignment: 0
      m_AllTileFlags: 1073741825
  - first: {x: 0, y: -5, z: 0}
    second:
      serializedVersion: 2
      m_TileIndex: 86
      m_TileSpriteIndex: 86
      m_TileMatrixIndex: 0
      m_TileColorIndex: 0
      m_TileObjectToInstantiateIndex: 65535
      dummyAlignment: 0
      m_AllTileFlags: 1073741825
  - first: {x: 4, y: -5, z: 0}
    second:
      serializedVersion: 2
      m_TileIndex: 87
      m_TileSpriteIndex: 87
      m_TileMatrixIndex: 0
      m_TileColorIndex: 0
      m_TileObjectToInstantiateIndex: 65535
      dummyAlignment: 0
      m_AllTileFlags: 1073741825
  - first: {x: 5, y: -5, z: 0}
    second:
      serializedVersion: 2
      m_TileIndex: 88
      m_TileSpriteIndex: 88
      m_TileMatrixIndex: 0
      m_TileColorIndex: 0
      m_TileObjectToInstantiateIndex: 65535
      dummyAlignment: 0
      m_AllTileFlags: 1073741825
  - first: {x: 6, y: -5, z: 0}
    second:
      serializedVersion: 2
      m_TileIndex: 89
      m_TileSpriteIndex: 89
      m_TileMatrixIndex: 0
      m_TileColorIndex: 0
      m_TileObjectToInstantiateIndex: 65535
      dummyAlignment: 0
      m_AllTileFlags: 1073741825
  - first: {x: 11, y: -5, z: 0}
    second:
      serializedVersion: 2
      m_TileIndex: 90
      m_TileSpriteIndex: 90
      m_TileMatrixIndex: 0
      m_TileColorIndex: 0
      m_TileObjectToInstantiateIndex: 65535
      dummyAlignment: 0
      m_AllTileFlags: 1073741825
  - first: {x: 12, y: -5, z: 0}
    second:
      serializedVersion: 2
      m_TileIndex: 91
      m_TileSpriteIndex: 91
      m_TileMatrixIndex: 0
      m_TileColorIndex: 0
      m_TileObjectToInstantiateIndex: 65535
      dummyAlignment: 0
      m_AllTileFlags: 1073741825
  - first: {x: 13, y: -5, z: 0}
    second:
      serializedVersion: 2
      m_TileIndex: 92
      m_TileSpriteIndex: 92
      m_TileMatrixIndex: 0
      m_TileColorIndex: 0
      m_TileObjectToInstantiateIndex: 65535
      dummyAlignment: 0
      m_AllTileFlags: 1073741825
  - first: {x: 15, y: -5, z: 0}
    second:
      serializedVersion: 2
      m_TileIndex: 93
      m_TileSpriteIndex: 93
      m_TileMatrixIndex: 0
      m_TileColorIndex: 0
      m_TileObjectToInstantiateIndex: 65535
      dummyAlignment: 0
      m_AllTileFlags: 1073741825
  - first: {x: 16, y: -5, z: 0}
    second:
      serializedVersion: 2
      m_TileIndex: 94
      m_TileSpriteIndex: 94
      m_TileMatrixIndex: 0
      m_TileColorIndex: 0
      m_TileObjectToInstantiateIndex: 65535
      dummyAlignment: 0
      m_AllTileFlags: 1073741825
  - first: {x: 17, y: -5, z: 0}
    second:
      serializedVersion: 2
      m_TileIndex: 95
      m_TileSpriteIndex: 95
      m_TileMatrixIndex: 0
      m_TileColorIndex: 0
      m_TileObjectToInstantiateIndex: 65535
      dummyAlignment: 0
      m_AllTileFlags: 1073741825
  - first: {x: -2, y: -4, z: 0}
    second:
      serializedVersion: 2
      m_TileIndex: 65
      m_TileSpriteIndex: 65
      m_TileMatrixIndex: 0
      m_TileColorIndex: 0
      m_TileObjectToInstantiateIndex: 65535
      dummyAlignment: 0
      m_AllTileFlags: 1073741825
  - first: {x: -1, y: -4, z: 0}
    second:
      serializedVersion: 2
      m_TileIndex: 66
      m_TileSpriteIndex: 66
      m_TileMatrixIndex: 0
      m_TileColorIndex: 0
      m_TileObjectToInstantiateIndex: 65535
      dummyAlignment: 0
      m_AllTileFlags: 1073741825
  - first: {x: 0, y: -4, z: 0}
    second:
      serializedVersion: 2
      m_TileIndex: 67
      m_TileSpriteIndex: 67
      m_TileMatrixIndex: 0
      m_TileColorIndex: 0
      m_TileObjectToInstantiateIndex: 65535
      dummyAlignment: 0
      m_AllTileFlags: 1073741825
  - first: {x: 1, y: -4, z: 0}
    second:
      serializedVersion: 2
      m_TileIndex: 68
      m_TileSpriteIndex: 68
      m_TileMatrixIndex: 0
      m_TileColorIndex: 0
      m_TileObjectToInstantiateIndex: 65535
      dummyAlignment: 0
      m_AllTileFlags: 1073741825
  - first: {x: 2, y: -4, z: 0}
    second:
      serializedVersion: 2
      m_TileIndex: 69
      m_TileSpriteIndex: 69
      m_TileMatrixIndex: 0
      m_TileColorIndex: 0
      m_TileObjectToInstantiateIndex: 65535
      dummyAlignment: 0
      m_AllTileFlags: 1073741825
  - first: {x: 4, y: -4, z: 0}
    second:
      serializedVersion: 2
      m_TileIndex: 70
      m_TileSpriteIndex: 70
      m_TileMatrixIndex: 0
      m_TileColorIndex: 0
      m_TileObjectToInstantiateIndex: 65535
      dummyAlignment: 0
      m_AllTileFlags: 1073741825
  - first: {x: 5, y: -4, z: 0}
    second:
      serializedVersion: 2
      m_TileIndex: 71
      m_TileSpriteIndex: 71
      m_TileMatrixIndex: 0
      m_TileColorIndex: 0
      m_TileObjectToInstantiateIndex: 65535
      dummyAlignment: 0
      m_AllTileFlags: 1073741825
  - first: {x: 6, y: -4, z: 0}
    second:
      serializedVersion: 2
      m_TileIndex: 72
      m_TileSpriteIndex: 72
      m_TileMatrixIndex: 0
      m_TileColorIndex: 0
      m_TileObjectToInstantiateIndex: 65535
      dummyAlignment: 0
      m_AllTileFlags: 1073741825
  - first: {x: 7, y: -4, z: 0}
    second:
      serializedVersion: 2
      m_TileIndex: 73
      m_TileSpriteIndex: 73
      m_TileMatrixIndex: 0
      m_TileColorIndex: 0
      m_TileObjectToInstantiateIndex: 65535
      dummyAlignment: 0
      m_AllTileFlags: 1073741825
  - first: {x: 8, y: -4, z: 0}
    second:
      serializedVersion: 2
      m_TileIndex: 74
      m_TileSpriteIndex: 74
      m_TileMatrixIndex: 0
      m_TileColorIndex: 0
      m_TileObjectToInstantiateIndex: 65535
      dummyAlignment: 0
      m_AllTileFlags: 1073741825
  - first: {x: 10, y: -4, z: 0}
    second:
      serializedVersion: 2
      m_TileIndex: 75
      m_TileSpriteIndex: 75
      m_TileMatrixIndex: 0
      m_TileColorIndex: 0
      m_TileObjectToInstantiateIndex: 65535
      dummyAlignment: 0
      m_AllTileFlags: 1073741825
  - first: {x: 11, y: -4, z: 0}
    second:
      serializedVersion: 2
      m_TileIndex: 76
      m_TileSpriteIndex: 76
      m_TileMatrixIndex: 0
      m_TileColorIndex: 0
      m_TileObjectToInstantiateIndex: 65535
      dummyAlignment: 0
      m_AllTileFlags: 1073741825
  - first: {x: 12, y: -4, z: 0}
    second:
      serializedVersion: 2
      m_TileIndex: 77
      m_TileSpriteIndex: 77
      m_TileMatrixIndex: 0
      m_TileColorIndex: 0
      m_TileObjectToInstantiateIndex: 65535
      dummyAlignment: 0
      m_AllTileFlags: 1073741825
  - first: {x: 13, y: -4, z: 0}
    second:
      serializedVersion: 2
      m_TileIndex: 78
      m_TileSpriteIndex: 78
      m_TileMatrixIndex: 0
      m_TileColorIndex: 0
      m_TileObjectToInstantiateIndex: 65535
      dummyAlignment: 0
      m_AllTileFlags: 1073741825
  - first: {x: 15, y: -4, z: 0}
    second:
      serializedVersion: 2
      m_TileIndex: 79
      m_TileSpriteIndex: 79
      m_TileMatrixIndex: 0
      m_TileColorIndex: 0
      m_TileObjectToInstantiateIndex: 65535
      dummyAlignment: 0
      m_AllTileFlags: 1073741825
  - first: {x: 16, y: -4, z: 0}
    second:
      serializedVersion: 2
      m_TileIndex: 80
      m_TileSpriteIndex: 80
      m_TileMatrixIndex: 0
      m_TileColorIndex: 0
      m_TileObjectToInstantiateIndex: 65535
      dummyAlignment: 0
      m_AllTileFlags: 1073741825
  - first: {x: 17, y: -4, z: 0}
    second:
      serializedVersion: 2
      m_TileIndex: 81
      m_TileSpriteIndex: 81
      m_TileMatrixIndex: 0
      m_TileColorIndex: 0
      m_TileObjectToInstantiateIndex: 65535
      dummyAlignment: 0
      m_AllTileFlags: 1073741825
  - first: {x: 18, y: -4, z: 0}
    second:
      serializedVersion: 2
      m_TileIndex: 82
      m_TileSpriteIndex: 82
      m_TileMatrixIndex: 0
      m_TileColorIndex: 0
      m_TileObjectToInstantiateIndex: 65535
      dummyAlignment: 0
      m_AllTileFlags: 1073741825
  - first: {x: 19, y: -4, z: 0}
    second:
      serializedVersion: 2
      m_TileIndex: 83
      m_TileSpriteIndex: 83
      m_TileMatrixIndex: 0
      m_TileColorIndex: 0
      m_TileObjectToInstantiateIndex: 65535
      dummyAlignment: 0
      m_AllTileFlags: 1073741825
  - first: {x: -2, y: -3, z: 0}
    second:
      serializedVersion: 2
      m_TileIndex: 46
      m_TileSpriteIndex: 46
      m_TileMatrixIndex: 0
      m_TileColorIndex: 0
      m_TileObjectToInstantiateIndex: 65535
      dummyAlignment: 0
      m_AllTileFlags: 1073741825
  - first: {x: -1, y: -3, z: 0}
    second:
      serializedVersion: 2
      m_TileIndex: 47
      m_TileSpriteIndex: 47
      m_TileMatrixIndex: 0
      m_TileColorIndex: 0
      m_TileObjectToInstantiateIndex: 65535
      dummyAlignment: 0
      m_AllTileFlags: 1073741825
  - first: {x: 0, y: -3, z: 0}
    second:
      serializedVersion: 2
      m_TileIndex: 48
      m_TileSpriteIndex: 48
      m_TileMatrixIndex: 0
      m_TileColorIndex: 0
      m_TileObjectToInstantiateIndex: 65535
      dummyAlignment: 0
      m_AllTileFlags: 1073741825
  - first: {x: 1, y: -3, z: 0}
    second:
      serializedVersion: 2
      m_TileIndex: 49
      m_TileSpriteIndex: 49
      m_TileMatrixIndex: 0
      m_TileColorIndex: 0
      m_TileObjectToInstantiateIndex: 65535
      dummyAlignment: 0
      m_AllTileFlags: 1073741825
  - first: {x: 2, y: -3, z: 0}
    second:
      serializedVersion: 2
      m_TileIndex: 50
      m_TileSpriteIndex: 50
      m_TileMatrixIndex: 0
      m_TileColorIndex: 0
      m_TileObjectToInstantiateIndex: 65535
      dummyAlignment: 0
      m_AllTileFlags: 1073741825
  - first: {x: 4, y: -3, z: 0}
    second:
      serializedVersion: 2
      m_TileIndex: 51
      m_TileSpriteIndex: 51
      m_TileMatrixIndex: 0
      m_TileColorIndex: 0
      m_TileObjectToInstantiateIndex: 65535
      dummyAlignment: 0
      m_AllTileFlags: 1073741825
  - first: {x: 5, y: -3, z: 0}
    second:
      serializedVersion: 2
      m_TileIndex: 52
      m_TileSpriteIndex: 52
      m_TileMatrixIndex: 0
      m_TileColorIndex: 0
      m_TileObjectToInstantiateIndex: 65535
      dummyAlignment: 0
      m_AllTileFlags: 1073741825
  - first: {x: 6, y: -3, z: 0}
    second:
      serializedVersion: 2
      m_TileIndex: 53
      m_TileSpriteIndex: 53
      m_TileMatrixIndex: 0
      m_TileColorIndex: 0
      m_TileObjectToInstantiateIndex: 65535
      dummyAlignment: 0
      m_AllTileFlags: 1073741825
  - first: {x: 7, y: -3, z: 0}
    second:
      serializedVersion: 2
      m_TileIndex: 54
      m_TileSpriteIndex: 54
      m_TileMatrixIndex: 0
      m_TileColorIndex: 0
      m_TileObjectToInstantiateIndex: 65535
      dummyAlignment: 0
      m_AllTileFlags: 1073741825
  - first: {x: 8, y: -3, z: 0}
    second:
      serializedVersion: 2
      m_TileIndex: 55
      m_TileSpriteIndex: 55
      m_TileMatrixIndex: 0
      m_TileColorIndex: 0
      m_TileObjectToInstantiateIndex: 65535
      dummyAlignment: 0
      m_AllTileFlags: 1073741825
  - first: {x: 10, y: -3, z: 0}
    second:
      serializedVersion: 2
      m_TileIndex: 56
      m_TileSpriteIndex: 56
      m_TileMatrixIndex: 0
      m_TileColorIndex: 0
      m_TileObjectToInstantiateIndex: 65535
      dummyAlignment: 0
      m_AllTileFlags: 1073741825
  - first: {x: 11, y: -3, z: 0}
    second:
      serializedVersion: 2
      m_TileIndex: 57
      m_TileSpriteIndex: 57
      m_TileMatrixIndex: 0
      m_TileColorIndex: 0
      m_TileObjectToInstantiateIndex: 65535
      dummyAlignment: 0
      m_AllTileFlags: 1073741825
  - first: {x: 12, y: -3, z: 0}
    second:
      serializedVersion: 2
      m_TileIndex: 58
      m_TileSpriteIndex: 58
      m_TileMatrixIndex: 0
      m_TileColorIndex: 0
      m_TileObjectToInstantiateIndex: 65535
      dummyAlignment: 0
      m_AllTileFlags: 1073741825
  - first: {x: 13, y: -3, z: 0}
    second:
      serializedVersion: 2
      m_TileIndex: 59
      m_TileSpriteIndex: 59
      m_TileMatrixIndex: 0
      m_TileColorIndex: 0
      m_TileObjectToInstantiateIndex: 65535
      dummyAlignment: 0
      m_AllTileFlags: 1073741825
  - first: {x: 15, y: -3, z: 0}
    second:
      serializedVersion: 2
      m_TileIndex: 60
      m_TileSpriteIndex: 60
      m_TileMatrixIndex: 0
      m_TileColorIndex: 0
      m_TileObjectToInstantiateIndex: 65535
      dummyAlignment: 0
      m_AllTileFlags: 1073741825
  - first: {x: 16, y: -3, z: 0}
    second:
      serializedVersion: 2
      m_TileIndex: 61
      m_TileSpriteIndex: 61
      m_TileMatrixIndex: 0
      m_TileColorIndex: 0
      m_TileObjectToInstantiateIndex: 65535
      dummyAlignment: 0
      m_AllTileFlags: 1073741825
  - first: {x: 17, y: -3, z: 0}
    second:
      serializedVersion: 2
      m_TileIndex: 62
      m_TileSpriteIndex: 62
      m_TileMatrixIndex: 0
      m_TileColorIndex: 0
      m_TileObjectToInstantiateIndex: 65535
      dummyAlignment: 0
      m_AllTileFlags: 1073741825
  - first: {x: 18, y: -3, z: 0}
    second:
      serializedVersion: 2
      m_TileIndex: 63
      m_TileSpriteIndex: 63
      m_TileMatrixIndex: 0
      m_TileColorIndex: 0
      m_TileObjectToInstantiateIndex: 65535
      dummyAlignment: 0
      m_AllTileFlags: 1073741825
  - first: {x: 19, y: -3, z: 0}
    second:
      serializedVersion: 2
      m_TileIndex: 64
      m_TileSpriteIndex: 64
      m_TileMatrixIndex: 0
      m_TileColorIndex: 0
      m_TileObjectToInstantiateIndex: 65535
      dummyAlignment: 0
      m_AllTileFlags: 1073741825
  - first: {x: -2, y: -1, z: 0}
    second:
      serializedVersion: 2
      m_TileIndex: 34
      m_TileSpriteIndex: 34
      m_TileMatrixIndex: 0
      m_TileColorIndex: 0
      m_TileObjectToInstantiateIndex: 65535
      dummyAlignment: 0
      m_AllTileFlags: 1073741825
  - first: {x: -1, y: -1, z: 0}
    second:
      serializedVersion: 2
      m_TileIndex: 35
      m_TileSpriteIndex: 35
      m_TileMatrixIndex: 0
      m_TileColorIndex: 0
      m_TileObjectToInstantiateIndex: 65535
      dummyAlignment: 0
      m_AllTileFlags: 1073741825
  - first: {x: 0, y: -1, z: 0}
    second:
      serializedVersion: 2
      m_TileIndex: 36
      m_TileSpriteIndex: 36
      m_TileMatrixIndex: 0
      m_TileColorIndex: 0
      m_TileObjectToInstantiateIndex: 65535
      dummyAlignment: 0
      m_AllTileFlags: 1073741825
  - first: {x: 4, y: -1, z: 0}
    second:
      serializedVersion: 2
      m_TileIndex: 37
      m_TileSpriteIndex: 37
      m_TileMatrixIndex: 0
      m_TileColorIndex: 0
      m_TileObjectToInstantiateIndex: 65535
      dummyAlignment: 0
      m_AllTileFlags: 1073741825
  - first: {x: 5, y: -1, z: 0}
    second:
      serializedVersion: 2
      m_TileIndex: 38
      m_TileSpriteIndex: 38
      m_TileMatrixIndex: 0
      m_TileColorIndex: 0
      m_TileObjectToInstantiateIndex: 65535
      dummyAlignment: 0
      m_AllTileFlags: 1073741825
  - first: {x: 6, y: -1, z: 0}
    second:
      serializedVersion: 2
      m_TileIndex: 39
      m_TileSpriteIndex: 39
      m_TileMatrixIndex: 0
      m_TileColorIndex: 0
      m_TileObjectToInstantiateIndex: 65535
      dummyAlignment: 0
      m_AllTileFlags: 1073741825
  - first: {x: 11, y: -1, z: 0}
    second:
      serializedVersion: 2
      m_TileIndex: 40
      m_TileSpriteIndex: 40
      m_TileMatrixIndex: 0
      m_TileColorIndex: 0
      m_TileObjectToInstantiateIndex: 65535
      dummyAlignment: 0
      m_AllTileFlags: 1073741825
  - first: {x: 12, y: -1, z: 0}
    second:
      serializedVersion: 2
      m_TileIndex: 41
      m_TileSpriteIndex: 41
      m_TileMatrixIndex: 0
      m_TileColorIndex: 0
      m_TileObjectToInstantiateIndex: 65535
      dummyAlignment: 0
      m_AllTileFlags: 1073741825
  - first: {x: 13, y: -1, z: 0}
    second:
      serializedVersion: 2
      m_TileIndex: 42
      m_TileSpriteIndex: 42
      m_TileMatrixIndex: 0
      m_TileColorIndex: 0
      m_TileObjectToInstantiateIndex: 65535
      dummyAlignment: 0
      m_AllTileFlags: 1073741825
  - first: {x: 15, y: -1, z: 0}
    second:
      serializedVersion: 2
      m_TileIndex: 43
      m_TileSpriteIndex: 43
      m_TileMatrixIndex: 0
      m_TileColorIndex: 0
      m_TileObjectToInstantiateIndex: 65535
      dummyAlignment: 0
      m_AllTileFlags: 1073741825
  - first: {x: 16, y: -1, z: 0}
    second:
      serializedVersion: 2
      m_TileIndex: 44
      m_TileSpriteIndex: 44
      m_TileMatrixIndex: 0
      m_TileColorIndex: 0
      m_TileObjectToInstantiateIndex: 65535
      dummyAlignment: 0
      m_AllTileFlags: 1073741825
  - first: {x: 17, y: -1, z: 0}
    second:
      serializedVersion: 2
      m_TileIndex: 45
      m_TileSpriteIndex: 45
      m_TileMatrixIndex: 0
      m_TileColorIndex: 0
      m_TileObjectToInstantiateIndex: 65535
      dummyAlignment: 0
      m_AllTileFlags: 1073741825
  - first: {x: -2, y: 0, z: 0}
    second:
      serializedVersion: 2
      m_TileIndex: 17
      m_TileSpriteIndex: 17
      m_TileMatrixIndex: 0
      m_TileColorIndex: 0
      m_TileObjectToInstantiateIndex: 65535
      dummyAlignment: 0
      m_AllTileFlags: 1073741825
  - first: {x: -1, y: 0, z: 0}
    second:
      serializedVersion: 2
      m_TileIndex: 18
      m_TileSpriteIndex: 18
      m_TileMatrixIndex: 0
      m_TileColorIndex: 0
      m_TileObjectToInstantiateIndex: 65535
      dummyAlignment: 0
      m_AllTileFlags: 1073741825
  - first: {x: 0, y: 0, z: 0}
    second:
      serializedVersion: 2
      m_TileIndex: 19
      m_TileSpriteIndex: 19
      m_TileMatrixIndex: 0
      m_TileColorIndex: 0
      m_TileObjectToInstantiateIndex: 65535
      dummyAlignment: 0
      m_AllTileFlags: 1073741825
  - first: {x: 1, y: 0, z: 0}
    second:
      serializedVersion: 2
      m_TileIndex: 20
      m_TileSpriteIndex: 20
      m_TileMatrixIndex: 0
      m_TileColorIndex: 0
      m_TileObjectToInstantiateIndex: 65535
      dummyAlignment: 0
      m_AllTileFlags: 1073741825
  - first: {x: 2, y: 0, z: 0}
    second:
      serializedVersion: 2
      m_TileIndex: 21
      m_TileSpriteIndex: 21
      m_TileMatrixIndex: 0
      m_TileColorIndex: 0
      m_TileObjectToInstantiateIndex: 65535
      dummyAlignment: 0
      m_AllTileFlags: 1073741825
  - first: {x: 4, y: 0, z: 0}
    second:
      serializedVersion: 2
      m_TileIndex: 22
      m_TileSpriteIndex: 22
      m_TileMatrixIndex: 0
      m_TileColorIndex: 0
      m_TileObjectToInstantiateIndex: 65535
      dummyAlignment: 0
      m_AllTileFlags: 1073741825
  - first: {x: 5, y: 0, z: 0}
    second:
      serializedVersion: 2
      m_TileIndex: 23
      m_TileSpriteIndex: 23
      m_TileMatrixIndex: 0
      m_TileColorIndex: 0
      m_TileObjectToInstantiateIndex: 65535
      dummyAlignment: 0
      m_AllTileFlags: 1073741825
  - first: {x: 6, y: 0, z: 0}
    second:
      serializedVersion: 2
      m_TileIndex: 24
      m_TileSpriteIndex: 24
      m_TileMatrixIndex: 0
      m_TileColorIndex: 0
      m_TileObjectToInstantiateIndex: 65535
      dummyAlignment: 0
      m_AllTileFlags: 1073741825
  - first: {x: 7, y: 0, z: 0}
    second:
      serializedVersion: 2
      m_TileIndex: 25
      m_TileSpriteIndex: 25
      m_TileMatrixIndex: 0
      m_TileColorIndex: 0
      m_TileObjectToInstantiateIndex: 65535
      dummyAlignment: 0
      m_AllTileFlags: 1073741825
  - first: {x: 8, y: 0, z: 0}
    second:
      serializedVersion: 2
      m_TileIndex: 26
      m_TileSpriteIndex: 26
      m_TileMatrixIndex: 0
      m_TileColorIndex: 0
      m_TileObjectToInstantiateIndex: 65535
      dummyAlignment: 0
      m_AllTileFlags: 1073741825
  - first: {x: 10, y: 0, z: 0}
    second:
      serializedVersion: 2
      m_TileIndex: 27
      m_TileSpriteIndex: 27
      m_TileMatrixIndex: 0
      m_TileColorIndex: 0
      m_TileObjectToInstantiateIndex: 65535
      dummyAlignment: 0
      m_AllTileFlags: 1073741825
  - first: {x: 11, y: 0, z: 0}
    second:
      serializedVersion: 2
      m_TileIndex: 28
      m_TileSpriteIndex: 28
      m_TileMatrixIndex: 0
      m_TileColorIndex: 0
      m_TileObjectToInstantiateIndex: 65535
      dummyAlignment: 0
      m_AllTileFlags: 1073741825
  - first: {x: 12, y: 0, z: 0}
    second:
      serializedVersion: 2
      m_TileIndex: 29
      m_TileSpriteIndex: 29
      m_TileMatrixIndex: 0
      m_TileColorIndex: 0
      m_TileObjectToInstantiateIndex: 65535
      dummyAlignment: 0
      m_AllTileFlags: 1073741825
  - first: {x: 13, y: 0, z: 0}
    second:
      serializedVersion: 2
      m_TileIndex: 30
      m_TileSpriteIndex: 30
      m_TileMatrixIndex: 0
      m_TileColorIndex: 0
      m_TileObjectToInstantiateIndex: 65535
      dummyAlignment: 0
      m_AllTileFlags: 1073741825
  - first: {x: 15, y: 0, z: 0}
    second:
      serializedVersion: 2
      m_TileIndex: 31
      m_TileSpriteIndex: 31
      m_TileMatrixIndex: 0
      m_TileColorIndex: 0
      m_TileObjectToInstantiateIndex: 65535
      dummyAlignment: 0
      m_AllTileFlags: 1073741825
  - first: {x: 16, y: 0, z: 0}
    second:
      serializedVersion: 2
      m_TileIndex: 32
      m_TileSpriteIndex: 32
      m_TileMatrixIndex: 0
      m_TileColorIndex: 0
      m_TileObjectToInstantiateIndex: 65535
      dummyAlignment: 0
      m_AllTileFlags: 1073741825
  - first: {x: 17, y: 0, z: 0}
    second:
      serializedVersion: 2
      m_TileIndex: 33
      m_TileSpriteIndex: 33
      m_TileMatrixIndex: 0
      m_TileColorIndex: 0
      m_TileObjectToInstantiateIndex: 65535
      dummyAlignment: 0
      m_AllTileFlags: 1073741825
  - first: {x: -2, y: 1, z: 0}
    second:
      serializedVersion: 2
      m_TileIndex: 0
      m_TileSpriteIndex: 0
      m_TileMatrixIndex: 0
      m_TileColorIndex: 0
      m_TileObjectToInstantiateIndex: 65535
      dummyAlignment: 0
      m_AllTileFlags: 1073741825
  - first: {x: -1, y: 1, z: 0}
    second:
      serializedVersion: 2
      m_TileIndex: 1
      m_TileSpriteIndex: 1
      m_TileMatrixIndex: 0
      m_TileColorIndex: 0
      m_TileObjectToInstantiateIndex: 65535
      dummyAlignment: 0
      m_AllTileFlags: 1073741825
  - first: {x: 0, y: 1, z: 0}
    second:
      serializedVersion: 2
      m_TileIndex: 2
      m_TileSpriteIndex: 2
      m_TileMatrixIndex: 0
      m_TileColorIndex: 0
      m_TileObjectToInstantiateIndex: 65535
      dummyAlignment: 0
      m_AllTileFlags: 1073741825
  - first: {x: 1, y: 1, z: 0}
    second:
      serializedVersion: 2
      m_TileIndex: 3
      m_TileSpriteIndex: 3
      m_TileMatrixIndex: 0
      m_TileColorIndex: 0
      m_TileObjectToInstantiateIndex: 65535
      dummyAlignment: 0
      m_AllTileFlags: 1073741825
  - first: {x: 2, y: 1, z: 0}
    second:
      serializedVersion: 2
      m_TileIndex: 4
      m_TileSpriteIndex: 4
      m_TileMatrixIndex: 0
      m_TileColorIndex: 0
      m_TileObjectToInstantiateIndex: 65535
      dummyAlignment: 0
      m_AllTileFlags: 1073741825
  - first: {x: 4, y: 1, z: 0}
    second:
      serializedVersion: 2
      m_TileIndex: 5
      m_TileSpriteIndex: 5
      m_TileMatrixIndex: 0
      m_TileColorIndex: 0
      m_TileObjectToInstantiateIndex: 65535
      dummyAlignment: 0
      m_AllTileFlags: 1073741825
  - first: {x: 5, y: 1, z: 0}
    second:
      serializedVersion: 2
      m_TileIndex: 6
      m_TileSpriteIndex: 6
      m_TileMatrixIndex: 0
      m_TileColorIndex: 0
      m_TileObjectToInstantiateIndex: 65535
      dummyAlignment: 0
      m_AllTileFlags: 1073741825
  - first: {x: 6, y: 1, z: 0}
    second:
      serializedVersion: 2
      m_TileIndex: 7
      m_TileSpriteIndex: 7
      m_TileMatrixIndex: 0
      m_TileColorIndex: 0
      m_TileObjectToInstantiateIndex: 65535
      dummyAlignment: 0
      m_AllTileFlags: 1073741825
  - first: {x: 7, y: 1, z: 0}
    second:
      serializedVersion: 2
      m_TileIndex: 8
      m_TileSpriteIndex: 8
      m_TileMatrixIndex: 0
      m_TileColorIndex: 0
      m_TileObjectToInstantiateIndex: 65535
      dummyAlignment: 0
      m_AllTileFlags: 1073741825
  - first: {x: 8, y: 1, z: 0}
    second:
      serializedVersion: 2
      m_TileIndex: 9
      m_TileSpriteIndex: 9
      m_TileMatrixIndex: 0
      m_TileColorIndex: 0
      m_TileObjectToInstantiateIndex: 65535
      dummyAlignment: 0
      m_AllTileFlags: 1073741825
  - first: {x: 10, y: 1, z: 0}
    second:
      serializedVersion: 2
      m_TileIndex: 10
      m_TileSpriteIndex: 10
      m_TileMatrixIndex: 0
      m_TileColorIndex: 0
      m_TileObjectToInstantiateIndex: 65535
      dummyAlignment: 0
      m_AllTileFlags: 1073741825
  - first: {x: 11, y: 1, z: 0}
    second:
      serializedVersion: 2
      m_TileIndex: 11
      m_TileSpriteIndex: 11
      m_TileMatrixIndex: 0
      m_TileColorIndex: 0
      m_TileObjectToInstantiateIndex: 65535
      dummyAlignment: 0
      m_AllTileFlags: 1073741825
  - first: {x: 12, y: 1, z: 0}
    second:
      serializedVersion: 2
      m_TileIndex: 12
      m_TileSpriteIndex: 12
      m_TileMatrixIndex: 0
      m_TileColorIndex: 0
      m_TileObjectToInstantiateIndex: 65535
      dummyAlignment: 0
      m_AllTileFlags: 1073741825
  - first: {x: 13, y: 1, z: 0}
    second:
      serializedVersion: 2
      m_TileIndex: 13
      m_TileSpriteIndex: 13
      m_TileMatrixIndex: 0
      m_TileColorIndex: 0
      m_TileObjectToInstantiateIndex: 65535
      dummyAlignment: 0
      m_AllTileFlags: 1073741825
  - first: {x: 15, y: 1, z: 0}
    second:
      serializedVersion: 2
      m_TileIndex: 14
      m_TileSpriteIndex: 14
      m_TileMatrixIndex: 0
      m_TileColorIndex: 0
      m_TileObjectToInstantiateIndex: 65535
      dummyAlignment: 0
      m_AllTileFlags: 1073741825
  - first: {x: 16, y: 1, z: 0}
    second:
      serializedVersion: 2
      m_TileIndex: 15
      m_TileSpriteIndex: 15
      m_TileMatrixIndex: 0
      m_TileColorIndex: 0
      m_TileObjectToInstantiateIndex: 65535
      dummyAlignment: 0
      m_AllTileFlags: 1073741825
  - first: {x: 17, y: 1, z: 0}
    second:
      serializedVersion: 2
      m_TileIndex: 16
      m_TileSpriteIndex: 16
      m_TileMatrixIndex: 0
      m_TileColorIndex: 0
      m_TileObjectToInstantiateIndex: 65535
      dummyAlignment: 0
      m_AllTileFlags: 1073741825
  m_AnimatedTiles: {}
  m_TileAssetArray:
  - m_RefCount: 1
    m_Data: {fileID: 11400000, guid: 2b72b22fff225b94ba4a61e820079b26, type: 2}
  - m_RefCount: 1
    m_Data: {fileID: 11400000, guid: f45f09d3d54983346a9f223a8d94dbcd, type: 2}
  - m_RefCount: 1
    m_Data: {fileID: 11400000, guid: ee69bc32c9cd8c64b8ce0becaf3c9fb7, type: 2}
  - m_RefCount: 1
    m_Data: {fileID: 11400000, guid: 3ff8050704724554292dbe7165b66c48, type: 2}
  - m_RefCount: 1
    m_Data: {fileID: 11400000, guid: e18b9a5d404d1234f81000b60987c288, type: 2}
  - m_RefCount: 1
    m_Data: {fileID: 11400000, guid: 1345664c53c060e4499d3c4ba42efb39, type: 2}
  - m_RefCount: 1
    m_Data: {fileID: 11400000, guid: cf15d49d3a22ee141bd61afb52907e13, type: 2}
  - m_RefCount: 1
    m_Data: {fileID: 11400000, guid: 463fe39315a17014ba67d8592235df21, type: 2}
  - m_RefCount: 1
    m_Data: {fileID: 11400000, guid: 6a585cbe1501cad47b6921f97efc10c3, type: 2}
  - m_RefCount: 1
    m_Data: {fileID: 11400000, guid: 9f5f680ae1beda64c8d52f0ce348abfd, type: 2}
  - m_RefCount: 1
    m_Data: {fileID: 11400000, guid: 7d2a4362c7a59324a87d722cebb73f82, type: 2}
  - m_RefCount: 1
    m_Data: {fileID: 11400000, guid: ad4af2334c045464f9193aed36ffd414, type: 2}
  - m_RefCount: 1
    m_Data: {fileID: 11400000, guid: 2ec61c1d9f2c50542b5eb098a0f330de, type: 2}
  - m_RefCount: 1
    m_Data: {fileID: 11400000, guid: 038b00cdfd382f64aa104b4648753223, type: 2}
  - m_RefCount: 1
    m_Data: {fileID: 11400000, guid: 687941c47127d3c4d8881025a372ebd9, type: 2}
  - m_RefCount: 1
    m_Data: {fileID: 11400000, guid: f84fc108b02ed1a44b8d02a7694263c1, type: 2}
  - m_RefCount: 1
    m_Data: {fileID: 11400000, guid: d9854698f4793d4438359c01806ff5d6, type: 2}
  - m_RefCount: 1
    m_Data: {fileID: 11400000, guid: 6ffdd9dc638055e47a6b0bc256eef019, type: 2}
  - m_RefCount: 1
    m_Data: {fileID: 11400000, guid: 24e6165cbda4a1b428684a7af19bdcd9, type: 2}
  - m_RefCount: 1
    m_Data: {fileID: 11400000, guid: ddf3663d9541e4d4e8f9da93b5540774, type: 2}
  - m_RefCount: 1
    m_Data: {fileID: 11400000, guid: f7068f04002b4354cba165687046d9ab, type: 2}
  - m_RefCount: 1
    m_Data: {fileID: 11400000, guid: a7d6ff966374a454a96af2cb86fc7d6e, type: 2}
  - m_RefCount: 1
    m_Data: {fileID: 11400000, guid: 43076bb8582aa5e4eaa73657632f39ee, type: 2}
  - m_RefCount: 1
    m_Data: {fileID: 11400000, guid: 8309a7155584a08419edea2d58ba63da, type: 2}
  - m_RefCount: 1
    m_Data: {fileID: 11400000, guid: 5f90fa99ca01f4c42afadec7ad878ee7, type: 2}
  - m_RefCount: 1
    m_Data: {fileID: 11400000, guid: 97c581c13c419264da44b033464065c5, type: 2}
  - m_RefCount: 1
    m_Data: {fileID: 11400000, guid: e58997fef532712448961665e2fa32fc, type: 2}
  - m_RefCount: 1
    m_Data: {fileID: 11400000, guid: a02c61b035f1f8b4b8ee90210e5813c3, type: 2}
  - m_RefCount: 1
    m_Data: {fileID: 11400000, guid: 0bf628de31718cf448da0a103f95261e, type: 2}
  - m_RefCount: 1
    m_Data: {fileID: 11400000, guid: 36d15ff09cb56f04f84e5d389365ff6a, type: 2}
  - m_RefCount: 1
    m_Data: {fileID: 11400000, guid: 19026bc4e70db9948b7e10b624d9c663, type: 2}
  - m_RefCount: 1
    m_Data: {fileID: 11400000, guid: c46cd01325914fa479f53dab5ad135f4, type: 2}
  - m_RefCount: 1
    m_Data: {fileID: 11400000, guid: 6f614e3426a485545aa8da9e71d45073, type: 2}
  - m_RefCount: 1
    m_Data: {fileID: 11400000, guid: f558d99c6a5f3bb4dbd48ac1e31b9fdf, type: 2}
  - m_RefCount: 1
    m_Data: {fileID: 11400000, guid: 4ec37d40b97f6ad45bb21d0cdb76cb92, type: 2}
  - m_RefCount: 1
    m_Data: {fileID: 11400000, guid: 1e0a61bfcd2c8c74db581998c0af6b35, type: 2}
  - m_RefCount: 1
    m_Data: {fileID: 11400000, guid: b60541a74e5f02c4b87182bf87686a80, type: 2}
  - m_RefCount: 1
    m_Data: {fileID: 11400000, guid: ca312c5e6ccfbcf47b947225683790c5, type: 2}
  - m_RefCount: 1
    m_Data: {fileID: 11400000, guid: 7b01f82741e387e42bfc134ff5cf3b9c, type: 2}
  - m_RefCount: 1
    m_Data: {fileID: 11400000, guid: 94bce44c970447f4cbcd295fe5b8bd4c, type: 2}
  - m_RefCount: 1
    m_Data: {fileID: 11400000, guid: e3b7231b1a8f041478a542bf7d023f37, type: 2}
  - m_RefCount: 1
    m_Data: {fileID: 11400000, guid: 407922a48c2be8e4d8843d0acc0cddb8, type: 2}
  - m_RefCount: 1
    m_Data: {fileID: 11400000, guid: ed1b538858beb0948981f2ed72a2fb3e, type: 2}
  - m_RefCount: 1
    m_Data: {fileID: 11400000, guid: b18e0f4af4916b247888d35d6c744d98, type: 2}
  - m_RefCount: 1
    m_Data: {fileID: 11400000, guid: 1789fd221077de94997db0c0c7ee020f, type: 2}
  - m_RefCount: 1
    m_Data: {fileID: 11400000, guid: c49d5ca1c7971fd41b08cdd97cfbb334, type: 2}
  - m_RefCount: 1
    m_Data: {fileID: 11400000, guid: 91fad77c4e43bcc4cb6936cb898fb239, type: 2}
  - m_RefCount: 1
    m_Data: {fileID: 11400000, guid: 964b06fa0a8cd684d8437379f359eacf, type: 2}
  - m_RefCount: 1
    m_Data: {fileID: 11400000, guid: 453cd03dd4805514bb67992cce61ce67, type: 2}
  - m_RefCount: 1
    m_Data: {fileID: 11400000, guid: 003d0d23313494143bbebaf01f86b8a1, type: 2}
  - m_RefCount: 1
    m_Data: {fileID: 11400000, guid: 8c68c58b55469be4da1ac65ad3663687, type: 2}
  - m_RefCount: 1
    m_Data: {fileID: 11400000, guid: 365fa7ec58705c94094c4047c357c648, type: 2}
  - m_RefCount: 1
    m_Data: {fileID: 11400000, guid: 7c4eac1a3e3a1c549ae4a5fabfaee748, type: 2}
  - m_RefCount: 1
    m_Data: {fileID: 11400000, guid: 52911ba747898154eb961123c2e23042, type: 2}
  - m_RefCount: 1
    m_Data: {fileID: 11400000, guid: 1be9c12069de43c4bbf16830bee72cc6, type: 2}
  - m_RefCount: 1
    m_Data: {fileID: 11400000, guid: 2b6a914b8a327e74fa10cc68d7b9770c, type: 2}
  - m_RefCount: 1
    m_Data: {fileID: 11400000, guid: 0b82c8340257d0642a5f5455c2025026, type: 2}
  - m_RefCount: 1
    m_Data: {fileID: 11400000, guid: 796d203ac33f8604cbbd84ea6173d05f, type: 2}
  - m_RefCount: 1
    m_Data: {fileID: 11400000, guid: 29b5216865b9c434ca85c6fee0167433, type: 2}
  - m_RefCount: 1
    m_Data: {fileID: 11400000, guid: 45a6e25e946595843a1b5c014ba6b958, type: 2}
  - m_RefCount: 1
    m_Data: {fileID: 11400000, guid: 4c117427eb142664791fb43c18f367d1, type: 2}
  - m_RefCount: 1
    m_Data: {fileID: 11400000, guid: dafeb1c385b1a0347a82574d1639372b, type: 2}
  - m_RefCount: 1
    m_Data: {fileID: 11400000, guid: c3e00c85fea276c4fbd5ba493a56a177, type: 2}
  - m_RefCount: 1
    m_Data: {fileID: 11400000, guid: d9c634cc3617bec45a324696f294bc17, type: 2}
  - m_RefCount: 1
    m_Data: {fileID: 11400000, guid: aa4f2f2bf961d4e4e99f56db066d48a8, type: 2}
  - m_RefCount: 1
    m_Data: {fileID: 11400000, guid: d3f912b8f9eecc4438f2de179d862ef3, type: 2}
  - m_RefCount: 1
    m_Data: {fileID: 11400000, guid: 70a41601588494d44bb63707aa9fd0d2, type: 2}
  - m_RefCount: 1
    m_Data: {fileID: 11400000, guid: 39997b10e9adfb34399b3898f5a17cf3, type: 2}
  - m_RefCount: 1
    m_Data: {fileID: 11400000, guid: cadd6743b223a274f8fb16de7ee57fbf, type: 2}
  - m_RefCount: 1
    m_Data: {fileID: 11400000, guid: bb11d11c87894ac4b88491b0f4207ce5, type: 2}
  - m_RefCount: 1
    m_Data: {fileID: 11400000, guid: 39d5b09ed56e0f44fb281bf3bfa8faa4, type: 2}
  - m_RefCount: 1
    m_Data: {fileID: 11400000, guid: f0e0858952a0b4b47b629fe6e7ce84de, type: 2}
  - m_RefCount: 1
    m_Data: {fileID: 11400000, guid: dea8e59a97fece249a4b5fb19b92bcb3, type: 2}
  - m_RefCount: 1
    m_Data: {fileID: 11400000, guid: 264f860817259ce449ceba62710091ae, type: 2}
  - m_RefCount: 1
    m_Data: {fileID: 11400000, guid: 1238d7d846b20d841be48d44afc447ee, type: 2}
  - m_RefCount: 1
    m_Data: {fileID: 11400000, guid: 33ce26b099e390c4791a5e5f321da45e, type: 2}
  - m_RefCount: 1
    m_Data: {fileID: 11400000, guid: bda48c60c39b27a49a00bb590702b1cd, type: 2}
  - m_RefCount: 1
    m_Data: {fileID: 11400000, guid: 9635465d1ea24294e8ab6b59c556706f, type: 2}
  - m_RefCount: 1
    m_Data: {fileID: 11400000, guid: dba29ac78f9248b4e9d250ff158162b5, type: 2}
  - m_RefCount: 1
    m_Data: {fileID: 11400000, guid: 464a9b2659f73f24c9482f68dccb4440, type: 2}
  - m_RefCount: 1
    m_Data: {fileID: 11400000, guid: 91db0e9fa44badf4985255942988ab17, type: 2}
  - m_RefCount: 1
    m_Data: {fileID: 11400000, guid: 0ffd5033502125941aef07a5fdbf1739, type: 2}
  - m_RefCount: 1
    m_Data: {fileID: 11400000, guid: 3673b11b834bb874c9dc283f7c839ca6, type: 2}
  - m_RefCount: 1
    m_Data: {fileID: 11400000, guid: 4155a9aba0be0ac46b536826680a8f10, type: 2}
  - m_RefCount: 1
    m_Data: {fileID: 11400000, guid: c4be7d3bd171db04d9bf1f23610058a7, type: 2}
  - m_RefCount: 1
    m_Data: {fileID: 11400000, guid: 21d7128a1ad84cb41b9e1e71c396269a, type: 2}
  - m_RefCount: 1
    m_Data: {fileID: 11400000, guid: 44244df69daf71f4a9ece273d4b3ee34, type: 2}
  - m_RefCount: 1
    m_Data: {fileID: 11400000, guid: 5c1895b6e41703541805aab81ce8f22e, type: 2}
  - m_RefCount: 1
    m_Data: {fileID: 11400000, guid: 81e2753979265814e9d7018424a3ddff, type: 2}
  - m_RefCount: 1
    m_Data: {fileID: 11400000, guid: 11f15947076797b4a8e09b2e5a57a562, type: 2}
  - m_RefCount: 1
    m_Data: {fileID: 11400000, guid: 748eb2a72926d9e4bad9c838b6bd574a, type: 2}
  - m_RefCount: 1
    m_Data: {fileID: 11400000, guid: 15934d6238f81ed44bd54d1ab98ea5fa, type: 2}
  - m_RefCount: 1
    m_Data: {fileID: 11400000, guid: 36ede8697fff3704aabb85b943654779, type: 2}
  - m_RefCount: 1
    m_Data: {fileID: 11400000, guid: e1d73eded2e302e49a008042c61b8643, type: 2}
  - m_RefCount: 1
    m_Data: {fileID: 11400000, guid: 916d943a1eaffdc4083c716cb6fbdf29, type: 2}
  - m_RefCount: 1
    m_Data: {fileID: 11400000, guid: a638707fdd698214f8d41c89c600e7f2, type: 2}
  - m_RefCount: 1
    m_Data: {fileID: 11400000, guid: 33480f2132834de438c8e5a939d19874, type: 2}
  - m_RefCount: 1
    m_Data: {fileID: 11400000, guid: e06b1dc52671d724db7e952f95ec2ae4, type: 2}
  - m_RefCount: 1
    m_Data: {fileID: 11400000, guid: 65be87da40067db47b509ef0e11f40ad, type: 2}
  - m_RefCount: 1
    m_Data: {fileID: 11400000, guid: f834772194d2eaa4181b8a1f78a7c84c, type: 2}
  - m_RefCount: 1
    m_Data: {fileID: 11400000, guid: 5c92a0bb54e58ed41b732f242dbda4b6, type: 2}
  - m_RefCount: 1
    m_Data: {fileID: 11400000, guid: 1f427c12d8578ca4e9c71ce142c4b254, type: 2}
  - m_RefCount: 1
    m_Data: {fileID: 11400000, guid: da77500aef34dcd448518a2d10448137, type: 2}
  - m_RefCount: 1
    m_Data: {fileID: 11400000, guid: 86f11557596858947bcdd676ed412c27, type: 2}
  - m_RefCount: 1
    m_Data: {fileID: 11400000, guid: 0117c3640f88d8442ba37930e97ba242, type: 2}
  - m_RefCount: 1
    m_Data: {fileID: 11400000, guid: a04eec33432b3054baf72690e028363c, type: 2}
  - m_RefCount: 1
    m_Data: {fileID: 11400000, guid: 0ff92c2ece630e24dbba815362f22695, type: 2}
  - m_RefCount: 1
    m_Data: {fileID: 11400000, guid: c6faa46e7b080d640988286d8a15b6b4, type: 2}
  - m_RefCount: 1
    m_Data: {fileID: 11400000, guid: c5e49dd204a605b41b6caaf91b657382, type: 2}
  - m_RefCount: 1
    m_Data: {fileID: 11400000, guid: 778ce3eb3ef17f9488f9105e6e58bfe6, type: 2}
  - m_RefCount: 1
    m_Data: {fileID: 11400000, guid: ba7c3b636bc061b47a64f28eb6f9d9ee, type: 2}
  - m_RefCount: 1
    m_Data: {fileID: 11400000, guid: 1e3d90e70cc083041a8f23387527bc9c, type: 2}
  - m_RefCount: 1
    m_Data: {fileID: 11400000, guid: 0f4a3da6394044d4bb14cc5868c21617, type: 2}
  - m_RefCount: 1
    m_Data: {fileID: 11400000, guid: 8a8e8a67290b9a949b1d2cf1e5eb6e0f, type: 2}
  - m_RefCount: 1
    m_Data: {fileID: 11400000, guid: 348146c4a66adb848807b2ccc1c365b3, type: 2}
  - m_RefCount: 1
    m_Data: {fileID: 11400000, guid: 4c61d4bd8e6bc0e4e9d0aaa2813b2060, type: 2}
  - m_RefCount: 1
    m_Data: {fileID: 11400000, guid: 8b4215343bdbcc743a4842822c6bf27c, type: 2}
  - m_RefCount: 1
    m_Data: {fileID: 11400000, guid: 74f4867789302bd4dbd68c1f68e741b7, type: 2}
  - m_RefCount: 1
    m_Data: {fileID: 11400000, guid: 73c10d1ca7a802743afa70461f6421a0, type: 2}
  - m_RefCount: 1
    m_Data: {fileID: 11400000, guid: 49233c5bba84b8a4f8588a1081ac3f31, type: 2}
  - m_RefCount: 1
    m_Data: {fileID: 11400000, guid: 0b41a4e9eb38f8040b79aa17286c22fd, type: 2}
  - m_RefCount: 1
    m_Data: {fileID: 11400000, guid: 6154f1a275c866c47b67e5f842662ab4, type: 2}
  - m_RefCount: 1
    m_Data: {fileID: 11400000, guid: 2c8eba1ed93da944682186636033006d, type: 2}
  - m_RefCount: 1
    m_Data: {fileID: 11400000, guid: c189802934b510b408c0b12e58112ff1, type: 2}
  - m_RefCount: 1
    m_Data: {fileID: 11400000, guid: cc5852a17002abd45bca4addb5f88ffa, type: 2}
  - m_RefCount: 1
    m_Data: {fileID: 11400000, guid: 00fb927bd5a3c1f4c9b9cbd01a8907a8, type: 2}
  - m_RefCount: 1
    m_Data: {fileID: 11400000, guid: a5e0199987cb4234886d51c995a511a9, type: 2}
  - m_RefCount: 1
    m_Data: {fileID: 11400000, guid: 1d2af9a05d6f08c42b9b474728a69ace, type: 2}
  - m_RefCount: 1
    m_Data: {fileID: 11400000, guid: 5f9631fac7f588049a7153f8d5455c7f, type: 2}
  - m_RefCount: 1
    m_Data: {fileID: 11400000, guid: 4164bbeebbd69124d9a02cfae2c2403e, type: 2}
  - m_RefCount: 1
    m_Data: {fileID: 11400000, guid: 7410664afb02f9448825b6dedb6926cd, type: 2}
  - m_RefCount: 1
    m_Data: {fileID: 11400000, guid: e9722ae5fc016c84e8a1fcd43b3db525, type: 2}
  - m_RefCount: 1
    m_Data: {fileID: 11400000, guid: 14a52cff7e4f172488e9152e3610beac, type: 2}
  - m_RefCount: 1
    m_Data: {fileID: 11400000, guid: 75657bb1de4c0394db06dcca27d5fbe1, type: 2}
  - m_RefCount: 1
    m_Data: {fileID: 11400000, guid: ff55b5ff4947c0d4c88640662f2ed257, type: 2}
  - m_RefCount: 1
    m_Data: {fileID: 11400000, guid: e5b4f94feb657fe4ea11d92a3056f3b2, type: 2}
  - m_RefCount: 1
    m_Data: {fileID: 11400000, guid: 514dd08c483862d4ba4d9b855a1d910f, type: 2}
  - m_RefCount: 1
    m_Data: {fileID: 11400000, guid: a8870f6f68a39004eb141b55af19498a, type: 2}
  - m_RefCount: 1
    m_Data: {fileID: 11400000, guid: c0b70435fe5903547a9177de3e8356b6, type: 2}
  - m_RefCount: 1
    m_Data: {fileID: 11400000, guid: 476a77e234e48cd40a4fc90ec8af89e7, type: 2}
  - m_RefCount: 1
    m_Data: {fileID: 11400000, guid: 764c44830016e024d92b157fbcc025c9, type: 2}
  - m_RefCount: 1
    m_Data: {fileID: 11400000, guid: 2069b2e456d27bc428e9c69d03e029aa, type: 2}
  - m_RefCount: 1
    m_Data: {fileID: 11400000, guid: 2e0ab2f12ab8f9542b4e0000cad83a81, type: 2}
  - m_RefCount: 1
    m_Data: {fileID: 11400000, guid: ded5c3886488d4e4aa4b873781acad98, type: 2}
  m_TileSpriteArray:
  - m_RefCount: 1
    m_Data: {fileID: -4874278423985981231, guid: fc584d329b77b9545b9c9c8bb829e553, type: 3}
  - m_RefCount: 1
    m_Data: {fileID: 2492004042214043949, guid: fc584d329b77b9545b9c9c8bb829e553, type: 3}
  - m_RefCount: 1
    m_Data: {fileID: 8471289998749917440, guid: fc584d329b77b9545b9c9c8bb829e553, type: 3}
  - m_RefCount: 1
    m_Data: {fileID: 397718093594370940, guid: fc584d329b77b9545b9c9c8bb829e553, type: 3}
  - m_RefCount: 1
    m_Data: {fileID: 4716054802376701170, guid: fc584d329b77b9545b9c9c8bb829e553, type: 3}
  - m_RefCount: 1
    m_Data: {fileID: -8620202154233844528, guid: fc584d329b77b9545b9c9c8bb829e553, type: 3}
  - m_RefCount: 1
    m_Data: {fileID: -7517053698926566003, guid: fc584d329b77b9545b9c9c8bb829e553, type: 3}
  - m_RefCount: 1
    m_Data: {fileID: 3020870990670601969, guid: fc584d329b77b9545b9c9c8bb829e553, type: 3}
  - m_RefCount: 1
    m_Data: {fileID: 1685935324672158413, guid: fc584d329b77b9545b9c9c8bb829e553, type: 3}
  - m_RefCount: 1
    m_Data: {fileID: 8022139226935704013, guid: fc584d329b77b9545b9c9c8bb829e553, type: 3}
  - m_RefCount: 1
    m_Data: {fileID: 5587568460378422633, guid: fc584d329b77b9545b9c9c8bb829e553, type: 3}
  - m_RefCount: 1
    m_Data: {fileID: 4987498479824627636, guid: fc584d329b77b9545b9c9c8bb829e553, type: 3}
  - m_RefCount: 1
    m_Data: {fileID: 6480251376165907240, guid: fc584d329b77b9545b9c9c8bb829e553, type: 3}
  - m_RefCount: 1
    m_Data: {fileID: -8795747966950415410, guid: fc584d329b77b9545b9c9c8bb829e553, type: 3}
  - m_RefCount: 1
    m_Data: {fileID: -6278356596846833739, guid: fc584d329b77b9545b9c9c8bb829e553, type: 3}
  - m_RefCount: 1
    m_Data: {fileID: -7850267199778421155, guid: fc584d329b77b9545b9c9c8bb829e553, type: 3}
  - m_RefCount: 1
    m_Data: {fileID: 8102182086558406705, guid: fc584d329b77b9545b9c9c8bb829e553, type: 3}
  - m_RefCount: 1
    m_Data: {fileID: 6918280329820428914, guid: fc584d329b77b9545b9c9c8bb829e553, type: 3}
  - m_RefCount: 1
    m_Data: {fileID: -3946849515626757761, guid: fc584d329b77b9545b9c9c8bb829e553, type: 3}
  - m_RefCount: 1
    m_Data: {fileID: -2698208165065819517, guid: fc584d329b77b9545b9c9c8bb829e553, type: 3}
  - m_RefCount: 1
    m_Data: {fileID: -5448943668070679941, guid: fc584d329b77b9545b9c9c8bb829e553, type: 3}
  - m_RefCount: 1
    m_Data: {fileID: -2572975058836569894, guid: fc584d329b77b9545b9c9c8bb829e553, type: 3}
  - m_RefCount: 1
    m_Data: {fileID: 5714336816974921154, guid: fc584d329b77b9545b9c9c8bb829e553, type: 3}
  - m_RefCount: 1
    m_Data: {fileID: 8704577166008928185, guid: fc584d329b77b9545b9c9c8bb829e553, type: 3}
  - m_RefCount: 1
    m_Data: {fileID: 313651839404696180, guid: fc584d329b77b9545b9c9c8bb829e553, type: 3}
  - m_RefCount: 1
    m_Data: {fileID: -1968872540364177098, guid: fc584d329b77b9545b9c9c8bb829e553, type: 3}
  - m_RefCount: 1
    m_Data: {fileID: -6401146908380638247, guid: fc584d329b77b9545b9c9c8bb829e553, type: 3}
  - m_RefCount: 1
    m_Data: {fileID: -3271834841568197018, guid: fc584d329b77b9545b9c9c8bb829e553, type: 3}
  - m_RefCount: 1
    m_Data: {fileID: -3097802831490656063, guid: fc584d329b77b9545b9c9c8bb829e553, type: 3}
  - m_RefCount: 1
    m_Data: {fileID: -8182233202742861025, guid: fc584d329b77b9545b9c9c8bb829e553, type: 3}
  - m_RefCount: 1
    m_Data: {fileID: -1730604581034617779, guid: fc584d329b77b9545b9c9c8bb829e553, type: 3}
  - m_RefCount: 1
    m_Data: {fileID: -1491035274662818768, guid: fc584d329b77b9545b9c9c8bb829e553, type: 3}
  - m_RefCount: 1
    m_Data: {fileID: -223391217462372170, guid: fc584d329b77b9545b9c9c8bb829e553, type: 3}
  - m_RefCount: 1
    m_Data: {fileID: 611065533247025525, guid: fc584d329b77b9545b9c9c8bb829e553, type: 3}
  - m_RefCount: 1
    m_Data: {fileID: 4356392584696007802, guid: fc584d329b77b9545b9c9c8bb829e553, type: 3}
  - m_RefCount: 1
    m_Data: {fileID: -8565927180804605051, guid: fc584d329b77b9545b9c9c8bb829e553, type: 3}
  - m_RefCount: 1
    m_Data: {fileID: -7788903373117692988, guid: fc584d329b77b9545b9c9c8bb829e553, type: 3}
  - m_RefCount: 1
    m_Data: {fileID: 1918823624152674874, guid: fc584d329b77b9545b9c9c8bb829e553, type: 3}
  - m_RefCount: 1
    m_Data: {fileID: 965125185638226396, guid: fc584d329b77b9545b9c9c8bb829e553, type: 3}
  - m_RefCount: 1
    m_Data: {fileID: 3631698497521491291, guid: fc584d329b77b9545b9c9c8bb829e553, type: 3}
  - m_RefCount: 1
    m_Data: {fileID: -1385159882611531606, guid: fc584d329b77b9545b9c9c8bb829e553, type: 3}
  - m_RefCount: 1
    m_Data: {fileID: 6882983052497979040, guid: fc584d329b77b9545b9c9c8bb829e553, type: 3}
  - m_RefCount: 1
    m_Data: {fileID: 5620700161029325194, guid: fc584d329b77b9545b9c9c8bb829e553, type: 3}
  - m_RefCount: 1
    m_Data: {fileID: 4373040517201769238, guid: fc584d329b77b9545b9c9c8bb829e553, type: 3}
  - m_RefCount: 1
    m_Data: {fileID: -6530495296205248430, guid: fc584d329b77b9545b9c9c8bb829e553, type: 3}
  - m_RefCount: 1
    m_Data: {fileID: 2248595124770686365, guid: fc584d329b77b9545b9c9c8bb829e553, type: 3}
  - m_RefCount: 1
    m_Data: {fileID: 59160463414151494, guid: fc584d329b77b9545b9c9c8bb829e553, type: 3}
  - m_RefCount: 1
    m_Data: {fileID: 7769017978755655707, guid: fc584d329b77b9545b9c9c8bb829e553, type: 3}
  - m_RefCount: 1
    m_Data: {fileID: 4651539075410445323, guid: fc584d329b77b9545b9c9c8bb829e553, type: 3}
  - m_RefCount: 1
    m_Data: {fileID: 2934133866269456315, guid: fc584d329b77b9545b9c9c8bb829e553, type: 3}
  - m_RefCount: 1
    m_Data: {fileID: 1034891850837087948, guid: fc584d329b77b9545b9c9c8bb829e553, type: 3}
  - m_RefCount: 1
    m_Data: {fileID: -4533138595082870998, guid: fc584d329b77b9545b9c9c8bb829e553, type: 3}
  - m_RefCount: 1
    m_Data: {fileID: 3702685922149842701, guid: fc584d329b77b9545b9c9c8bb829e553, type: 3}
  - m_RefCount: 1
    m_Data: {fileID: 510484679990689147, guid: fc584d329b77b9545b9c9c8bb829e553, type: 3}
  - m_RefCount: 1
    m_Data: {fileID: 3718556811081376101, guid: fc584d329b77b9545b9c9c8bb829e553, type: 3}
  - m_RefCount: 1
    m_Data: {fileID: -5869233480101591377, guid: fc584d329b77b9545b9c9c8bb829e553, type: 3}
  - m_RefCount: 1
    m_Data: {fileID: -2615569002567638836, guid: fc584d329b77b9545b9c9c8bb829e553, type: 3}
  - m_RefCount: 1
    m_Data: {fileID: 772467259971446145, guid: fc584d329b77b9545b9c9c8bb829e553, type: 3}
  - m_RefCount: 1
    m_Data: {fileID: -39983623799505075, guid: fc584d329b77b9545b9c9c8bb829e553, type: 3}
  - m_RefCount: 1
    m_Data: {fileID: 6999343348047764492, guid: fc584d329b77b9545b9c9c8bb829e553, type: 3}
  - m_RefCount: 1
    m_Data: {fileID: -6933530849576539303, guid: fc584d329b77b9545b9c9c8bb829e553, type: 3}
  - m_RefCount: 1
    m_Data: {fileID: -8849650766351124748, guid: fc584d329b77b9545b9c9c8bb829e553, type: 3}
  - m_RefCount: 1
    m_Data: {fileID: 5344191953466923600, guid: fc584d329b77b9545b9c9c8bb829e553, type: 3}
  - m_RefCount: 1
    m_Data: {fileID: 2110485755423906440, guid: fc584d329b77b9545b9c9c8bb829e553, type: 3}
  - m_RefCount: 1
    m_Data: {fileID: 611278257802682203, guid: fc584d329b77b9545b9c9c8bb829e553, type: 3}
  - m_RefCount: 1
    m_Data: {fileID: 8568688612705805593, guid: fc584d329b77b9545b9c9c8bb829e553, type: 3}
  - m_RefCount: 1
    m_Data: {fileID: -4293226751833479062, guid: fc584d329b77b9545b9c9c8bb829e553, type: 3}
  - m_RefCount: 1
    m_Data: {fileID: -531863552409210314, guid: fc584d329b77b9545b9c9c8bb829e553, type: 3}
  - m_RefCount: 1
    m_Data: {fileID: 3220740477721170248, guid: fc584d329b77b9545b9c9c8bb829e553, type: 3}
  - m_RefCount: 1
    m_Data: {fileID: -8232957222563989430, guid: fc584d329b77b9545b9c9c8bb829e553, type: 3}
  - m_RefCount: 1
    m_Data: {fileID: 3581976363580684779, guid: fc584d329b77b9545b9c9c8bb829e553, type: 3}
  - m_RefCount: 1
    m_Data: {fileID: 8137121077619138534, guid: fc584d329b77b9545b9c9c8bb829e553, type: 3}
  - m_RefCount: 1
    m_Data: {fileID: -4450007684230045513, guid: fc584d329b77b9545b9c9c8bb829e553, type: 3}
  - m_RefCount: 1
    m_Data: {fileID: 368488948622713827, guid: fc584d329b77b9545b9c9c8bb829e553, type: 3}
  - m_RefCount: 1
    m_Data: {fileID: -1652666043038260038, guid: fc584d329b77b9545b9c9c8bb829e553, type: 3}
  - m_RefCount: 1
    m_Data: {fileID: -3581127029532586042, guid: fc584d329b77b9545b9c9c8bb829e553, type: 3}
  - m_RefCount: 1
    m_Data: {fileID: -1130122408560378385, guid: fc584d329b77b9545b9c9c8bb829e553, type: 3}
  - m_RefCount: 1
    m_Data: {fileID: 1383883272258276261, guid: fc584d329b77b9545b9c9c8bb829e553, type: 3}
  - m_RefCount: 1
    m_Data: {fileID: -5125620877619029284, guid: fc584d329b77b9545b9c9c8bb829e553, type: 3}
  - m_RefCount: 1
    m_Data: {fileID: -7056944154279210060, guid: fc584d329b77b9545b9c9c8bb829e553, type: 3}
  - m_RefCount: 1
    m_Data: {fileID: -9178860142635623461, guid: fc584d329b77b9545b9c9c8bb829e553, type: 3}
  - m_RefCount: 1
    m_Data: {fileID: -5377211804188701585, guid: fc584d329b77b9545b9c9c8bb829e553, type: 3}
  - m_RefCount: 1
    m_Data: {fileID: -3332869691567337552, guid: fc584d329b77b9545b9c9c8bb829e553, type: 3}
  - m_RefCount: 1
    m_Data: {fileID: -7839824748867068813, guid: fc584d329b77b9545b9c9c8bb829e553, type: 3}
  - m_RefCount: 1
    m_Data: {fileID: 4860222720029096845, guid: fc584d329b77b9545b9c9c8bb829e553, type: 3}
  - m_RefCount: 1
    m_Data: {fileID: -8908544382962373700, guid: fc584d329b77b9545b9c9c8bb829e553, type: 3}
  - m_RefCount: 1
    m_Data: {fileID: 2534797647697017659, guid: fc584d329b77b9545b9c9c8bb829e553, type: 3}
  - m_RefCount: 1
    m_Data: {fileID: -701145450088738326, guid: fc584d329b77b9545b9c9c8bb829e553, type: 3}
  - m_RefCount: 1
    m_Data: {fileID: -7280874316543817821, guid: fc584d329b77b9545b9c9c8bb829e553, type: 3}
  - m_RefCount: 1
    m_Data: {fileID: 7816257180041521445, guid: fc584d329b77b9545b9c9c8bb829e553, type: 3}
  - m_RefCount: 1
    m_Data: {fileID: 4218957088357342075, guid: fc584d329b77b9545b9c9c8bb829e553, type: 3}
  - m_RefCount: 1
    m_Data: {fileID: -1647121858502193189, guid: fc584d329b77b9545b9c9c8bb829e553, type: 3}
  - m_RefCount: 1
    m_Data: {fileID: 3045001923454373135, guid: fc584d329b77b9545b9c9c8bb829e553, type: 3}
  - m_RefCount: 1
    m_Data: {fileID: 6046465229504819404, guid: fc584d329b77b9545b9c9c8bb829e553, type: 3}
  - m_RefCount: 1
    m_Data: {fileID: 146925484895311433, guid: fc584d329b77b9545b9c9c8bb829e553, type: 3}
  - m_RefCount: 1
    m_Data: {fileID: 3895720443503238059, guid: fc584d329b77b9545b9c9c8bb829e553, type: 3}
  - m_RefCount: 1
    m_Data: {fileID: -9019234469899804686, guid: fc584d329b77b9545b9c9c8bb829e553, type: 3}
  - m_RefCount: 1
    m_Data: {fileID: 3666724916130892037, guid: fc584d329b77b9545b9c9c8bb829e553, type: 3}
  - m_RefCount: 1
    m_Data: {fileID: 4557074923728586563, guid: fc584d329b77b9545b9c9c8bb829e553, type: 3}
  - m_RefCount: 1
    m_Data: {fileID: -4531858634233595940, guid: fc584d329b77b9545b9c9c8bb829e553, type: 3}
  - m_RefCount: 1
    m_Data: {fileID: -9185552814043747542, guid: fc584d329b77b9545b9c9c8bb829e553, type: 3}
  - m_RefCount: 1
    m_Data: {fileID: -8204820221692255543, guid: fc584d329b77b9545b9c9c8bb829e553, type: 3}
  - m_RefCount: 1
    m_Data: {fileID: -6233458931719022677, guid: fc584d329b77b9545b9c9c8bb829e553, type: 3}
  - m_RefCount: 1
    m_Data: {fileID: 1154340479819735195, guid: fc584d329b77b9545b9c9c8bb829e553, type: 3}
  - m_RefCount: 1
    m_Data: {fileID: 4778045797586685428, guid: fc584d329b77b9545b9c9c8bb829e553, type: 3}
  - m_RefCount: 1
    m_Data: {fileID: 6636356914981313421, guid: fc584d329b77b9545b9c9c8bb829e553, type: 3}
  - m_RefCount: 1
    m_Data: {fileID: 1686551188809007541, guid: fc584d329b77b9545b9c9c8bb829e553, type: 3}
  - m_RefCount: 1
    m_Data: {fileID: -5930776587842900371, guid: fc584d329b77b9545b9c9c8bb829e553, type: 3}
  - m_RefCount: 1
    m_Data: {fileID: -130104546997218819, guid: fc584d329b77b9545b9c9c8bb829e553, type: 3}
  - m_RefCount: 1
    m_Data: {fileID: -557614441817400054, guid: fc584d329b77b9545b9c9c8bb829e553, type: 3}
  - m_RefCount: 1
    m_Data: {fileID: -4356087948441045522, guid: fc584d329b77b9545b9c9c8bb829e553, type: 3}
  - m_RefCount: 1
    m_Data: {fileID: 2379953761323448013, guid: fc584d329b77b9545b9c9c8bb829e553, type: 3}
  - m_RefCount: 1
    m_Data: {fileID: -8392802036319243359, guid: fc584d329b77b9545b9c9c8bb829e553, type: 3}
  - m_RefCount: 1
    m_Data: {fileID: 3768474000973419263, guid: fc584d329b77b9545b9c9c8bb829e553, type: 3}
  - m_RefCount: 1
    m_Data: {fileID: -7876864015116417812, guid: fc584d329b77b9545b9c9c8bb829e553, type: 3}
  - m_RefCount: 1
    m_Data: {fileID: 2460501278191033764, guid: fc584d329b77b9545b9c9c8bb829e553, type: 3}
  - m_RefCount: 1
    m_Data: {fileID: 6516917985212256981, guid: fc584d329b77b9545b9c9c8bb829e553, type: 3}
  - m_RefCount: 1
    m_Data: {fileID: 2870588770018888475, guid: fc584d329b77b9545b9c9c8bb829e553, type: 3}
  - m_RefCount: 1
    m_Data: {fileID: 6172093022122347682, guid: fc584d329b77b9545b9c9c8bb829e553, type: 3}
  - m_RefCount: 1
    m_Data: {fileID: -4745629342412378363, guid: fc584d329b77b9545b9c9c8bb829e553, type: 3}
  - m_RefCount: 1
    m_Data: {fileID: -796906297672391504, guid: fc584d329b77b9545b9c9c8bb829e553, type: 3}
  - m_RefCount: 1
    m_Data: {fileID: 517537040645658821, guid: fc584d329b77b9545b9c9c8bb829e553, type: 3}
  - m_RefCount: 1
    m_Data: {fileID: 2348904716778239224, guid: fc584d329b77b9545b9c9c8bb829e553, type: 3}
  - m_RefCount: 1
    m_Data: {fileID: 6364211675350883068, guid: fc584d329b77b9545b9c9c8bb829e553, type: 3}
  - m_RefCount: 1
    m_Data: {fileID: -4506956802181919417, guid: fc584d329b77b9545b9c9c8bb829e553, type: 3}
  - m_RefCount: 1
    m_Data: {fileID: -8554552240816166350, guid: fc584d329b77b9545b9c9c8bb829e553, type: 3}
  - m_RefCount: 1
    m_Data: {fileID: 5155531445672774593, guid: fc584d329b77b9545b9c9c8bb829e553, type: 3}
  - m_RefCount: 1
    m_Data: {fileID: -8283946481429751769, guid: fc584d329b77b9545b9c9c8bb829e553, type: 3}
  - m_RefCount: 1
    m_Data: {fileID: 1437503401646794464, guid: fc584d329b77b9545b9c9c8bb829e553, type: 3}
  - m_RefCount: 1
    m_Data: {fileID: -8608529027667364052, guid: fc584d329b77b9545b9c9c8bb829e553, type: 3}
  - m_RefCount: 1
    m_Data: {fileID: -984624906782596688, guid: fc584d329b77b9545b9c9c8bb829e553, type: 3}
  - m_RefCount: 1
    m_Data: {fileID: -3935483887006374238, guid: fc584d329b77b9545b9c9c8bb829e553, type: 3}
  - m_RefCount: 1
    m_Data: {fileID: 9178892520020476994, guid: fc584d329b77b9545b9c9c8bb829e553, type: 3}
  - m_RefCount: 1
    m_Data: {fileID: -144014455013166516, guid: fc584d329b77b9545b9c9c8bb829e553, type: 3}
  - m_RefCount: 1
    m_Data: {fileID: -3253207453764529203, guid: fc584d329b77b9545b9c9c8bb829e553, type: 3}
  - m_RefCount: 1
    m_Data: {fileID: -7168242779200424501, guid: fc584d329b77b9545b9c9c8bb829e553, type: 3}
  - m_RefCount: 1
    m_Data: {fileID: -8219376919472097953, guid: fc584d329b77b9545b9c9c8bb829e553, type: 3}
  - m_RefCount: 1
    m_Data: {fileID: 5344690722283713150, guid: fc584d329b77b9545b9c9c8bb829e553, type: 3}
  - m_RefCount: 1
    m_Data: {fileID: 5394353238224683576, guid: fc584d329b77b9545b9c9c8bb829e553, type: 3}
  - m_RefCount: 1
    m_Data: {fileID: 8028931387866111178, guid: fc584d329b77b9545b9c9c8bb829e553, type: 3}
  - m_RefCount: 1
    m_Data: {fileID: 2961677793244026094, guid: fc584d329b77b9545b9c9c8bb829e553, type: 3}
  - m_RefCount: 1
    m_Data: {fileID: -2580880771318319752, guid: fc584d329b77b9545b9c9c8bb829e553, type: 3}
  - m_RefCount: 1
    m_Data: {fileID: -2266960901078078804, guid: fc584d329b77b9545b9c9c8bb829e553, type: 3}
  - m_RefCount: 1
    m_Data: {fileID: 4320056378629417345, guid: fc584d329b77b9545b9c9c8bb829e553, type: 3}
  m_TileMatrixArray:
  - m_RefCount: 144
    m_Data:
      e00: 1
      e01: 0
      e02: 0
      e03: 0
      e10: 0
      e11: 1
      e12: 0
      e13: 0
      e20: 0
      e21: 0
      e22: 1
      e23: 0
      e30: 0
      e31: 0
      e32: 0
      e33: 1
  m_TileColorArray:
  - m_RefCount: 144
    m_Data: {r: 1, g: 1, b: 1, a: 1}
  m_TileObjectToInstantiateArray: []
  m_AnimationFrameRate: 1
  m_Color: {r: 1, g: 1, b: 1, a: 1}
  m_Origin: {x: -2, y: -9, z: 0}
  m_Size: {x: 22, y: 11, z: 1}
  m_TileAnchor: {x: 0.5, y: 0.5, z: 0}
  m_TileOrientation: 0
  m_TileOrientationMatrix:
    e00: 1
    e01: 0
    e02: 0
    e03: 0
    e10: 0
    e11: 1
    e12: 0
    e13: 0
    e20: 0
    e21: 0
    e22: 1
    e23: 0
    e30: 0
    e31: 0
    e32: 0
    e33: 1
--- !u!483693784 &846987582717010285
TilemapRenderer:
  m_ObjectHideFlags: 0
  m_CorrespondingSourceObject: {fileID: 0}
  m_PrefabInstance: {fileID: 0}
  m_PrefabAsset: {fileID: 0}
  m_GameObject: {fileID: 7850942525507550235}
  m_Enabled: 1
  m_CastShadows: 0
  m_ReceiveShadows: 0
  m_DynamicOccludee: 0
  m_StaticShadowCaster: 0
  m_MotionVectors: 1
  m_LightProbeUsage: 0
  m_ReflectionProbeUsage: 0
  m_RayTracingMode: 0
  m_RayTraceProcedural: 0
  m_RenderingLayerMask: 1
  m_RendererPriority: 0
  m_Materials:
  - {fileID: 10754, guid: 0000000000000000f000000000000000, type: 0}
  m_StaticBatchInfo:
    firstSubMesh: 0
    subMeshCount: 0
  m_StaticBatchRoot: {fileID: 0}
  m_ProbeAnchor: {fileID: 0}
  m_LightProbeVolumeOverride: {fileID: 0}
  m_ScaleInLightmap: 1
  m_ReceiveGI: 1
  m_PreserveUVs: 0
  m_IgnoreNormalsForChartDetection: 0
  m_ImportantGI: 0
  m_StitchLightmapSeams: 1
  m_SelectedEditorRenderState: 0
  m_MinimumChartSize: 4
  m_AutoUVMaxDistance: 0.5
  m_AutoUVMaxAngle: 89
  m_LightmapParameters: {fileID: 0}
  m_SortingLayerID: 0
  m_SortingLayer: 0
  m_SortingOrder: 0
  m_ChunkSize: {x: 32, y: 32, z: 32}
  m_ChunkCullingBounds: {x: 0, y: 0, z: 0}
  m_MaxChunkCount: 16
  m_MaxFrameAge: 16
  m_SortOrder: 0
  m_Mode: 0
  m_DetectChunkCullingBounds: 0
  m_MaskInteraction: 0
--- !u!114 &2061098845678809629
MonoBehaviour:
  m_ObjectHideFlags: 0
  m_CorrespondingSourceObject: {fileID: 0}
  m_PrefabInstance: {fileID: 0}
  m_PrefabAsset: {fileID: 0}
  m_GameObject: {fileID: 0}
  m_Enabled: 1
  m_EditorHideFlags: 0
  m_Script: {fileID: 12395, guid: 0000000000000000e000000000000000, type: 0}
  m_Name: Palette Settings
  m_EditorClassIdentifier: 
  cellSizing: 0
  m_TransparencySortMode: 0
  m_TransparencySortAxis: {x: 0, y: 0, z: 1}
